…
    ## [1] '0.1.0'

### Give it a go

``` r
(xdf <- read_sl2(system.file("exdat", "example.sl2", package="arabia")))
```

    ## Format: sl2

    ## Block size: downscan

    ## .............

    ## # A tibble: 1,308 x 22
    ##    channel   upperLimit lowerLimit frequency waterDepth keelDepth speedGps temperature lng_enc lat_enc speedWater track
    ##    <chr>          <dbl>      <dbl> <chr>          <dbl>     <dbl>    <dbl>       <dbl>   <int>   <int>      <dbl> <dbl>
    ##  1 Secondary          0       13.3 200 KHz         2.62     0.328      0.5        15.8 4433307 7003054        0.5  4.97
    ##  2 DSI (Dow…          0       13.4 200 KHz         2.62     0.328      0.5        15.8 4433307 7003054        0.5  4.97
    ##  3 Primary            0       13.3 200 KHz         2.62     0.328      0.5        15.9 4433307 7003054        0.5  4.97
    ##  4 Secondary          0       13.3 200 KHz         2.62     0.328      0.5        15.9 4433307 7003054        0.5  4.97
    ##  5 DSI (Dow…          0       13.4 200 KHz         2.59     0.328      0          15.8 4433307 7003054        0    4.97
    ##  6 Secondary          0       13.3 200 KHz         2.59     0.328      0          15.8 4433307 7003054        0    4.97
    ##  7 Secondary          0       13.3 200 KHz         2.52     0.328      0          15.9 4433307 7003054        0    4.97
    ##  8 DSI (Dow…          0       13.4 200 KHz         2.52     0.328      0          15.9 4433307 7003054        0    4.97
    ##  9 Primary            0       13.3 200 KHz         2.52     0.328      0          15.8 4433307 7003054        0    4.97
    ## 10 DSI (Dow…          0       13.4 200 KHz         2.52     0.328      0          15.8 4433307 7003054        0    4.97
    ## # ... with 1,298 more rows, and 10 more variables: altitude <dbl>, heading <dbl>, timeOffset <int>, headingValid <lgl>,
    ## #   altitudeValid <lgl>, gpsSpeedValid <lgl>, waterTempValid <lgl>, positionValid <lgl>, waterSpeedValid <lgl>,
    ## #   trackValid <lgl>
…
